Solutions • rpharma2020tidytranscriptomics
…
## Getting the 500 most variable genes

## Fraction of variance explained by the selected principal components

## # A tibble: 3 x 2
##   `Fraction of variance`    PC
##                    <dbl> <int>
## 1                  0.314     1
## 2                  0.300     2
## 3                  0.177     3

## tidybulk says: to access the raw results do `attr(..., "internals")$PCA`

## # A tibble: 512,816 x 18
##    feature sample counts SampleName cell  dex   albut Run   avgLength Experiment
##    <fct>   <chr>   <int> <fct>      <fct> <fct> <fct> <fct>     <int> <fct>     
##  1 ENSG00… SRR10…    679 GSM1275862 N613… untrt untrt SRR1…       126 SRX384345 
##  2 ENSG00… SRR10…      0 GSM1275862 N613… untrt untrt SRR1…       126 SRX384345 
##  3 ENSG00… SRR10…    467 GSM1275862 N613… untrt untrt SRR1…       126 SRX384345 
##  4 ENSG00… SRR10…    260 GSM1275862 N613… untrt untrt SRR1…       126 SRX384345 
##  5 ENSG00… SRR10…     60 GSM1275862 N613… untrt untrt SRR1…       126 SRX384345 
##  6 ENSG00… SRR10…      0 GSM1275862 N613… untrt untrt SRR1…       126 SRX384345 
##  7 ENSG00… SRR10…   3251 GSM1275862 N613… untrt untrt SRR1…       126 SRX384345 
##  8 ENSG00… SRR10…   1433 GSM1275862 N613… untrt untrt SRR1…       126 SRX384345 
##  9 ENSG00… SRR10…    519 GSM1275862 N613… untrt untrt SRR1…       126 SRX384345 
## 10 ENSG00… SRR10…    394 GSM1275862 N613… untrt untrt SRR1…       126 SRX384345 
## # … with 512,806 more rows, and 8 more variables: Sample <fct>,
## #   BioSample <fct>, TMM <dbl>, multiplier <dbl>, counts_scaled <dbl>,
## #   PC1 <dbl>, PC2 <dbl>, PC3 <dbl>
…
