A Tidy Transcriptomics introduction to RNA-Seq analyses • rpharma2020tidytranscriptomics
…
In this workshop we will be using the tidyverse pipe %>%. This ‘pipes’ the output from the command on the left into the command on the right/below. Using the pipe is not essential but it reduces the amount of code we need to write when we have multiple steps (as we’ll see later). It also can make the steps clearer and easier to see. For more details on the pipe see here.

# load airway RNA sequencing data
data(airway)

# convert to tidybulk tibble
counts_airway <-
    airway %>%
    tidybulk()

We can type the name of the object to view.

counts_airway
#> # A tibble: 512,816 x 12
#>    feature sample counts SampleName cell  dex   albut Run   avgLength Experiment
#>    <fct>   <fct>   <int> <fct>      <fct> <fct> <fct> <fct>     <int> <fct>     
#>  1 ENSG00… SRR10…    679 GSM1275862 N613… untrt untrt SRR1…       126 SRX384345 
#>  2 ENSG00… SRR10…      0 GSM1275862 N613… untrt untrt SRR1…       126 SRX384345 
#>  3 ENSG00… SRR10…    467 GSM1275862 N613… untrt untrt SRR1…       126 SRX384345 
#>  4 ENSG00… SRR10…    260 GSM1275862 N613… untrt untrt SRR1…       126 SRX384345 
#>  5 ENSG00… SRR10…     60 GSM1275862 N613… untrt untrt SRR1…       126 SRX384345 
#>  6 ENSG00… SRR10…      0 GSM1275862 N613… untrt untrt SRR1…       126 SRX384345 
#>  7 ENSG00… SRR10…   3251 GSM1275862 N613… untrt untrt SRR1…       126 SRX384345 
#>  8 ENSG00… SRR10…   1433 GSM1275862 N613… untrt untrt SRR1…       126 SRX384345 
#>  9 ENSG00… SRR10…    519 GSM1275862 N613… untrt untrt SRR1…       126 SRX384345 
#> 10 ENSG00… SRR10…    394 GSM1275862 N613… untrt untrt SRR1…       126 SRX384345 
#> # … with 512,806 more rows, and 2 more variables: Sample <fct>, BioSample <fct>

The counts_tt object contains information about genes and samples, the first column has the Ensembl gene identifier, the second column has the sample identifier and the third column has the gene transcription abundance expressed in number of reads aligning to the gene in each experimental sample. The remaining columns include sample-wise information. The dex column tells us whether the samples are treated or untreated and the cell column tells us what cell line they are from.

We can shorten the sample names. We can remove the SRR1039 prefix that’s present in all of them, as shorter names can fit better in some of the plots we will create. We can use mutate() together with str_replace() to remove the SRR1039 string from the sample column.

counts_format <- counts_airway %>%
  mutate(sample=str_remove(sample, "SRR1039"))

Adding gene symbols

We can get the gene symbols for these Ensembl gene ids with tidybulk’s ensembl_to_symbol. This works for human and mouse.

counts_tt <- ensembl_to_symbol(counts_format, feature)
counts_tt
#> # A tibble: 512,816 x 14
#>    feature sample counts SampleName cell  dex   albut Run   avgLength Experiment
#>    <chr>   <chr>   <int> <fct>      <fct> <fct> <fct> <fct>     <int> <fct>     
#>  1 ENSG00… 508       679 GSM1275862 N613… untrt untrt SRR1…       126 SRX384345 
#>  2 ENSG00… 508         0 GSM1275862 N613… untrt untrt SRR1…       126 SRX384345 
#>  3 ENSG00… 508       467 GSM1275862 N613… untrt untrt SRR1…       126 SRX384345 
#>  4 ENSG00… 508       260 GSM1275862 N613… untrt untrt SRR1…       126 SRX384345 
#>  5 ENSG00… 508        60 GSM1275862 N613… untrt untrt SRR1…       126 SRX384345 
#>  6 ENSG00… 508         0 GSM1275862 N613… untrt untrt SRR1…       126 SRX384345 
#>  7 ENSG00… 508      3251 GSM1275862 N613… untrt untrt SRR1…       126 SRX384345 
#>  8 ENSG00… 508      1433 GSM1275862 N613… untrt untrt SRR1…       126 SRX384345 
#>  9 ENSG00… 508       519 GSM1275862 N613… untrt untrt SRR1…       126 SRX384345 
#> 10 ENSG00… 508       394 GSM1275862 N613… untrt untrt SRR1…       126 SRX384345 
#> # … with 512,806 more rows, and 4 more variables: Sample <fct>,
#> #   BioSample <fct>, transcript <chr>, ref_genome <chr>
…
From this tidybulk tibble, we can perform differential expression analysis with the tidybulk package.

Filtering lowly expressed genes

Genes with very low counts across all libraries provide little evidence for differential expression and they interfere with some of the statistical approximations that are used later in the pipeline. They also add to the multiple testing burden when estimating false discovery rates, reducing power to detect differentially expressed genes. These genes should be filtered out prior to further analysis.

Tidybulk keep_abundant can use the edgeR filterByExpr function described in (Law et al. 2016) to keep the genes with adequate abundance for differential expression testing. By default, this will keep genes with ~10 counts in a minimum number of samples, the number of the samples in the smallest group. In this dataset the smallest group size is four (as we have four dex-treated samples vs four untreated). Alternatively, we could use identify_abundant to identify which genes are abundant or not (TRUE/FALSE), rather than just keeping the abundant ones.

# Filtering counts
counts_filtered <- counts_tt %>% keep_abundant(factor_of_interest=dex)

# take a look
counts_filtered
#> # A tibble: 127,408 x 15
#>    feature sample counts SampleName cell  dex   albut Run   avgLength Experiment
#>    <chr>   <chr>   <int> <fct>      <fct> <fct> <fct> <fct>     <int> <fct>     
#>  1 ENSG00… 508       679 GSM1275862 N613… untrt untrt SRR1…       126 SRX384345 
#>  2 ENSG00… 508       467 GSM1275862 N613… untrt untrt SRR1…       126 SRX384345 
#>  3 ENSG00… 508       260 GSM1275862 N613… untrt untrt SRR1…       126 SRX384345 
#>  4 ENSG00… 508        60 GSM1275862 N613… untrt untrt SRR1…       126 SRX384345 
#>  5 ENSG00… 508      3251 GSM1275862 N613… untrt untrt SRR1…       126 SRX384345 
#>  6 ENSG00… 508      1433 GSM1275862 N613… untrt untrt SRR1…       126 SRX384345 
#>  7 ENSG00… 508       519 GSM1275862 N613… untrt untrt SRR1…       126 SRX384345 
#>  8 ENSG00… 508       394 GSM1275862 N613… untrt untrt SRR1…       126 SRX384345 
#>  9 ENSG00… 508       172 GSM1275862 N613… untrt untrt SRR1…       126 SRX384345 
#> 10 ENSG00… 508      2112 GSM1275862 N613… untrt untrt SRR1…       126 SRX384345 
#> # … with 127,398 more rows, and 5 more variables: Sample <fct>,
#> #   BioSample <fct>, transcript <chr>, ref_genome <chr>, .abundant <lgl>

After running keep_abundant we have a column called .abundant containing TRUE (identify_abundant would have TRUE/FALSE).

Scaling counts to normalise

Scaling of counts, normalisation, is performed to eliminate uninteresting differences between samples due to sequencing depth or composition. In the tidybulk package the function scale_abundance generates scaled counts, with scaling factors calculated on abundant (filtered) transcripts and applied to all transcripts. We can choose from different normalisation methods. Here we will use the default, TMM, (Robinson and Oshlack 2010). TMM normalisation (and most scaling normalisation methods) scale relative to one sample.

# Scaling counts
counts_scaled <- counts_filtered %>% scale_abundance()

# take a look
counts_scaled
#> # A tibble: 127,408 x 18
#>    feature sample counts SampleName cell  dex   albut Run   avgLength Experiment
#>    <chr>   <chr>   <int> <fct>      <fct> <fct> <fct> <fct>     <int> <fct>     
#>  1 ENSG00… 508       679 GSM1275862 N613… untrt untrt SRR1…       126 SRX384345 
#>  2 ENSG00… 508       467 GSM1275862 N613… untrt untrt SRR1…       126 SRX384345 
#>  3 ENSG00… 508       260 GSM1275862 N613… untrt untrt SRR1…       126 SRX384345 
#>  4 ENSG00… 508        60 GSM1275862 N613… untrt untrt SRR1…       126 SRX384345 
#>  5 ENSG00… 508      3251 GSM1275862 N613… untrt untrt SRR1…       126 SRX384345 
#>  6 ENSG00… 508      1433 GSM1275862 N613… untrt untrt SRR1…       126 SRX384345 
#>  7 ENSG00… 508       519 GSM1275862 N613… untrt untrt SRR1…       126 SRX384345 
#>  8 ENSG00… 508       394 GSM1275862 N613… untrt untrt SRR1…       126 SRX384345 
#>  9 ENSG00… 508       172 GSM1275862 N613… untrt untrt SRR1…       126 SRX384345 
#> 10 ENSG00… 508      2112 GSM1275862 N613… untrt untrt SRR1…       126 SRX384345 
#> # … with 127,398 more rows, and 8 more variables: Sample <fct>,
#> #   BioSample <fct>, transcript <chr>, ref_genome <chr>, .abundant <lgl>,
#> #   TMM <dbl>, multiplier <dbl>, counts_scaled <dbl>
…
This joins the result to the counts object.

# Take a look
counts_scal_PCA
#> # A tibble: 127,408 x 20
#>    feature sample counts SampleName cell  dex   albut Run   avgLength Experiment
#>    <chr>   <chr>   <int> <fct>      <fct> <fct> <fct> <fct>     <int> <fct>     
#>  1 ENSG00… 508       679 GSM1275862 N613… untrt untrt SRR1…       126 SRX384345 
#>  2 ENSG00… 508       467 GSM1275862 N613… untrt untrt SRR1…       126 SRX384345 
#>  3 ENSG00… 508       260 GSM1275862 N613… untrt untrt SRR1…       126 SRX384345 
#>  4 ENSG00… 508        60 GSM1275862 N613… untrt untrt SRR1…       126 SRX384345 
#>  5 ENSG00… 508      3251 GSM1275862 N613… untrt untrt SRR1…       126 SRX384345 
#>  6 ENSG00… 508      1433 GSM1275862 N613… untrt untrt SRR1…       126 SRX384345 
#>  7 ENSG00… 508       519 GSM1275862 N613… untrt untrt SRR1…       126 SRX384345 
#>  8 ENSG00… 508       394 GSM1275862 N613… untrt untrt SRR1…       126 SRX384345 
#>  9 ENSG00… 508       172 GSM1275862 N613… untrt untrt SRR1…       126 SRX384345 
#> 10 ENSG00… 508      2112 GSM1275862 N613… untrt untrt SRR1…       126 SRX384345 
#> # … with 127,398 more rows, and 10 more variables: Sample <fct>,
#> #   BioSample <fct>, transcript <chr>, ref_genome <chr>, .abundant <lgl>,
#> #   TMM <dbl>, multiplier <dbl>, counts_scaled <dbl>, PC1 <dbl>, PC2 <dbl>
…
The results will be joined to our counts for every sample.

# take a look
counts_de
#> # A tibble: 127,408 x 20
#>    feature sample counts SampleName cell  dex   albut Run   avgLength Experiment
#>    <chr>   <chr>   <int> <fct>      <fct> <fct> <fct> <fct>     <int> <fct>     
#>  1 ENSG00… 508       679 GSM1275862 N613… untrt untrt SRR1…       126 SRX384345 
#>  2 ENSG00… 508       467 GSM1275862 N613… untrt untrt SRR1…       126 SRX384345 
#>  3 ENSG00… 508       260 GSM1275862 N613… untrt untrt SRR1…       126 SRX384345 
#>  4 ENSG00… 508        60 GSM1275862 N613… untrt untrt SRR1…       126 SRX384345 
#>  5 ENSG00… 508      3251 GSM1275862 N613… untrt untrt SRR1…       126 SRX384345 
#>  6 ENSG00… 508      1433 GSM1275862 N613… untrt untrt SRR1…       126 SRX384345 
#>  7 ENSG00… 508       519 GSM1275862 N613… untrt untrt SRR1…       126 SRX384345 
#>  8 ENSG00… 508       394 GSM1275862 N613… untrt untrt SRR1…       126 SRX384345 
#>  9 ENSG00… 508       172 GSM1275862 N613… untrt untrt SRR1…       126 SRX384345 
#> 10 ENSG00… 508      2112 GSM1275862 N613… untrt untrt SRR1…       126 SRX384345 
#> # … with 127,398 more rows, and 10 more variables: Sample <fct>,
#> #   BioSample <fct>, transcript <chr>, ref_genome <chr>, .abundant <lgl>,
#> #   logFC <dbl>, logCPM <dbl>, F <dbl>, PValue <dbl>, FDR <dbl>

If we just want a table of differentially expressed genes we can select the transcript-wise information with pivot_transcript.

# take a look
counts_de %>% pivot_transcript()
#> # A tibble: 15,926 x 10
#>    feature albut transcript ref_genome .abundant   logFC logCPM       F  PValue
#>    <chr>   <fct> <chr>      <chr>      <lgl>       <dbl>  <dbl>   <dbl>   <dbl>
#>  1 ENSG00… untrt TSPAN6     hg38       TRUE      -0.390    5.06 32.8    3.12e-4
#>  2 ENSG00… untrt DPM1       hg38       TRUE       0.198    4.61  6.90   2.81e-2
#>  3 ENSG00… untrt SCYL3      hg38       TRUE       0.0292   3.48  0.0969 7.63e-1
#>  4 ENSG00… untrt C1orf112   hg38       TRUE      -0.124    1.47  0.377  5.55e-1
#>  5 ENSG00… untrt CFH        hg38       TRUE       0.417    8.09 29.3    4.63e-4
#>  6 ENSG00… untrt FUCA2      hg38       TRUE      -0.250    5.91 14.9    4.05e-3
#>  7 ENSG00… untrt GCLC       hg38       TRUE      -0.0581   4.84  0.167  6.92e-1
#>  8 ENSG00… untrt NFYA       hg38       TRUE      -0.509    4.13 44.9    1.00e-4
#>  9 ENSG00… untrt STPG1      hg38       TRUE      -0.136    3.12  1.04   3.35e-1
#> 10 ENSG00… untrt NIPAL3     hg38       TRUE      -0.0500   7.04  0.350  5.69e-1
#> # … with 15,916 more rows, and 1 more variable: FDR <dbl>
…
